2014-06-19 16:52:22,442 INFO: Event created. ID: acg7t0on1pj2dk0ks36dls71gk  Email: tomascollinstest@gmail.com [in /Users/thomascollins/Coding/python/schedule2calendar/main/schedule.py:62]
2014-06-19 16:52:22,860 INFO: Event created. ID: ms4paloskkhsun2auhj7mslpc8  Email: tomascollinstest@gmail.com [in /Users/thomascollins/Coding/python/schedule2calendar/main/schedule.py:62]
2014-06-19 16:52:23,256 INFO: Event created. ID: kboskqicfuo726pspu45tdkn3k  Email: tomascollinstest@gmail.com [in /Users/thomascollins/Coding/python/schedule2calendar/main/schedule.py:62]
2014-06-19 16:52:23,652 INFO: Event created. ID: h89lfrbqlumt9n5hh1h4ou6li8  Email: tomascollinstest@gmail.com [in /Users/thomascollins/Coding/python/schedule2calendar/main/schedule.py:62]
2014-06-19 17:08:59,292 DEBUG: <function filename at 0x101819938> [in /Users/thomascollins/Coding/python/schedule2calendar/main/schedule.py:94]
2014-06-19 17:09:00,338 INFO: Event created. ID: j3h67aihd9aau6a3lddidlt1nk  Email: tomascollinstest@gmail.com [in /Users/thomascollins/Coding/python/schedule2calendar/main/schedule.py:62]
2014-06-19 17:09:00,745 INFO: Event created. ID: avp2ff6rllptd0edne6i1q0d9k  Email: tomascollinstest@gmail.com [in /Users/thomascollins/Coding/python/schedule2calendar/main/schedule.py:62]
2014-06-19 17:09:01,164 INFO: Event created. ID: 5nolrtnri8m8a9024dqaikgfq4  Email: tomascollinstest@gmail.com [in /Users/thomascollins/Coding/python/schedule2calendar/main/schedule.py:62]
2014-06-19 17:09:01,770 INFO: Event created. ID: e5i3tnrmo69ibhn5bh3mjf9d48  Email: tomascollinstest@gmail.com [in /Users/thomascollins/Coding/python/schedule2calendar/main/schedule.py:62]
2014-06-19 17:09:02,453 INFO: Event created. ID: f4hcg2l6mdc3nu2gspit0av0hc  Email: tomascollinstest@gmail.com [in /Users/thomascollins/Coding/python/schedule2calendar/main/schedule.py:62]
2014-06-19 17:14:06,080 DEBUG: <function filename at 0x101819938> [in /Users/thomascollins/Coding/python/schedule2calendar/main/schedule.py:94]
2014-06-19 17:14:07,341 INFO: Event created. ID: r618eiffchs59050mreicv2gvo  Email: tomascollinstest@gmail.com [in /Users/thomascollins/Coding/python/schedule2calendar/main/schedule.py:62]
2014-06-19 17:14:07,740 INFO: Event created. ID: dpofli37efrri2c05tsc2p1fhs  Email: tomascollinstest@gmail.com [in /Users/thomascollins/Coding/python/schedule2calendar/main/schedule.py:62]
2014-06-19 17:14:08,153 INFO: Event created. ID: v43dv81blif67otrb636hmo610  Email: tomascollinstest@gmail.com [in /Users/thomascollins/Coding/python/schedule2calendar/main/schedule.py:62]
2014-06-19 17:14:08,684 INFO: Event created. ID: 1cgoja4dtggd21bm6qrp2s8g74  Email: tomascollinstest@gmail.com [in /Users/thomascollins/Coding/python/schedule2calendar/main/schedule.py:62]
2014-06-19 17:14:09,194 INFO: Event created. ID: pn1davuvij1ic06mkcf6licrj8  Email: tomascollinstest@gmail.com [in /Users/thomascollins/Coding/python/schedule2calendar/main/schedule.py:62]
2014-06-19 17:56:35,641 DEBUG: <function filename at 0x101821ed8> [in /Users/thomascollins/Coding/python/schedule2calendar/main/schedule.py:94]
2014-06-19 17:56:37,714 INFO: Event created. ID: ilo277rp13v5lcnrilst4uk92c  Email: tomascollinstest@gmail.com [in /Users/thomascollins/Coding/python/schedule2calendar/main/schedule.py:62]
2014-06-19 17:56:38,089 INFO: Event created. ID: 0sb1j5cnkkbpn01m6f7nljfl38  Email: tomascollinstest@gmail.com [in /Users/thomascollins/Coding/python/schedule2calendar/main/schedule.py:62]
2014-06-19 17:56:38,546 INFO: Event created. ID: eslddlmprfl59bkk5rn7slr5vg  Email: tomascollinstest@gmail.com [in /Users/thomascollins/Coding/python/schedule2calendar/main/schedule.py:62]
2014-06-19 17:56:38,958 INFO: Event created. ID: tntk2bbrtuq7t8iifpadth6uq4  Email: tomascollinstest@gmail.com [in /Users/thomascollins/Coding/python/schedule2calendar/main/schedule.py:62]
2014-06-19 17:56:39,469 INFO: Event created. ID: 6t4t6p6gfr7mqpddl6n8fgsj6c  Email: tomascollinstest@gmail.com [in /Users/thomascollins/Coding/python/schedule2calendar/main/schedule.py:62]
2014-06-19 17:56:49,864 DEBUG: <function filename at 0x101821ed8> [in /Users/thomascollins/Coding/python/schedule2calendar/main/schedule.py:94]
2014-06-19 21:06:41,944 DEBUG: <function filename at 0x101821e60> [in /Users/thomascollins/Coding/python/schedule2calendar/main/schedule.py:94]
2014-06-19 21:11:25,511 DEBUG: <function filename at 0x101822e60> [in /Users/thomascollins/Coding/python/schedule2calendar/main/schedule.py:94]
2014-06-19 21:14:04,760 DEBUG: <function filename at 0x101822e60> [in /Users/thomascollins/Coding/python/schedule2calendar/main/schedule.py:94]
2014-06-19 21:19:23,265 DEBUG: <function filename at 0x101822e60> [in /Users/thomascollins/Coding/python/schedule2calendar/main/schedule.py:94]
2014-06-19 21:19:40,227 ERROR: Exception on /save_calendar [POST] [in /Users/thomascollins/Coding/Web/Hub/python/venv/lib/python2.6/site-packages/flask/app.py:1423]
Traceback (most recent call last):
  File "/Users/thomascollins/Coding/Web/Hub/python/venv/lib/python2.6/site-packages/flask/app.py", line 1817, in wsgi_app
    response = self.full_dispatch_request()
  File "/Users/thomascollins/Coding/Web/Hub/python/venv/lib/python2.6/site-packages/flask/app.py", line 1477, in full_dispatch_request
    rv = self.handle_user_exception(e)
  File "/Users/thomascollins/Coding/Web/Hub/python/venv/lib/python2.6/site-packages/flask/app.py", line 1381, in handle_user_exception
    reraise(exc_type, exc_value, tb)
  File "/Users/thomascollins/Coding/Web/Hub/python/venv/lib/python2.6/site-packages/flask/app.py", line 1475, in full_dispatch_request
    rv = self.dispatch_request()
  File "/Users/thomascollins/Coding/Web/Hub/python/venv/lib/python2.6/site-packages/flask/app.py", line 1461, in dispatch_request
    return self.view_functions[rule.endpoint](**req.view_args)
  File "/Users/thomascollins/Coding/python/schedule2calendar/main/schedule2calendar.py", line 52, in calendar_save
    events = save_to_calendar(name, email, filepath)
  File "/Users/thomascollins/Coding/python/schedule2calendar/main/schedule.py", line 96, in save_to_calendar
    schedule = get_schedule(name, filepath)
  File "/Users/thomascollins/Coding/python/schedule2calendar/main/excel.py", line 41, in get_schedule
    raise NotFoundException
NotFoundException
2014-06-19 21:21:14,725 ERROR: Exception on /save_calendar [POST] [in /Users/thomascollins/Coding/Web/Hub/python/venv/lib/python2.6/site-packages/flask/app.py:1423]
Traceback (most recent call last):
  File "/Users/thomascollins/Coding/Web/Hub/python/venv/lib/python2.6/site-packages/flask/app.py", line 1817, in wsgi_app
    response = self.full_dispatch_request()
  File "/Users/thomascollins/Coding/Web/Hub/python/venv/lib/python2.6/site-packages/flask/app.py", line 1477, in full_dispatch_request
    rv = self.handle_user_exception(e)
  File "/Users/thomascollins/Coding/Web/Hub/python/venv/lib/python2.6/site-packages/flask/app.py", line 1381, in handle_user_exception
    reraise(exc_type, exc_value, tb)
  File "/Users/thomascollins/Coding/Web/Hub/python/venv/lib/python2.6/site-packages/flask/app.py", line 1475, in full_dispatch_request
    rv = self.dispatch_request()
  File "/Users/thomascollins/Coding/Web/Hub/python/venv/lib/python2.6/site-packages/flask/app.py", line 1461, in dispatch_request
    return self.view_functions[rule.endpoint](**req.view_args)
  File "/Users/thomascollins/Coding/python/schedule2calendar/main/schedule2calendar.py", line 52, in calendar_save
    events = save_to_calendar(name, email, filepath)
  File "/Users/thomascollins/Coding/python/schedule2calendar/main/schedule.py", line 96, in save_to_calendar
    schedule = get_schedule(name, filepath)
  File "/Users/thomascollins/Coding/python/schedule2calendar/main/excel.py", line 41, in get_schedule
    raise NotFoundException
NotFoundException
2014-06-19 21:27:27,015 ERROR: Exception on /save_calendar [POST] [in /Users/thomascollins/Coding/Web/Hub/python/venv/lib/python2.6/site-packages/flask/app.py:1423]
Traceback (most recent call last):
  File "/Users/thomascollins/Coding/Web/Hub/python/venv/lib/python2.6/site-packages/flask/app.py", line 1817, in wsgi_app
    response = self.full_dispatch_request()
  File "/Users/thomascollins/Coding/Web/Hub/python/venv/lib/python2.6/site-packages/flask/app.py", line 1477, in full_dispatch_request
    rv = self.handle_user_exception(e)
  File "/Users/thomascollins/Coding/Web/Hub/python/venv/lib/python2.6/site-packages/flask/app.py", line 1381, in handle_user_exception
    reraise(exc_type, exc_value, tb)
  File "/Users/thomascollins/Coding/Web/Hub/python/venv/lib/python2.6/site-packages/flask/app.py", line 1475, in full_dispatch_request
    rv = self.dispatch_request()
  File "/Users/thomascollins/Coding/Web/Hub/python/venv/lib/python2.6/site-packages/flask/app.py", line 1461, in dispatch_request
    return self.view_functions[rule.endpoint](**req.view_args)
  File "/Users/thomascollins/Coding/python/schedule2calendar/main/schedule2calendar.py", line 52, in calendar_save
    events = save_to_calendar(name, email, filepath)
  File "/Users/thomascollins/Coding/python/schedule2calendar/main/schedule.py", line 96, in save_to_calendar
    schedule = get_schedule(name, filepath)
  File "/Users/thomascollins/Coding/python/schedule2calendar/main/excel.py", line 41, in get_schedule
    raise NotFoundException
NameError: global name 'NotFoundException' is not defined
2014-06-19 21:29:23,580 DEBUG: <function filename at 0x101822e60> [in /Users/thomascollins/Coding/python/schedule2calendar/main/schedule.py:94]
2014-06-19 21:31:04,605 DEBUG: <function filename at 0x101822e60> [in /Users/thomascollins/Coding/python/schedule2calendar/main/schedule.py:94]
2014-06-19 21:35:26,909 DEBUG: <function filename at 0x101822e60> [in /Users/thomascollins/Coding/python/schedule2calendar/main/schedule.py:94]
2014-06-19 21:36:15,780 DEBUG: <function filename at 0x101822e60> [in /Users/thomascollins/Coding/python/schedule2calendar/main/schedule.py:94]
