Exception on /save_calendar [POST]
Traceback (most recent call last):
  File "/Users/thomascollins/Coding/Web/Hub/python/venv/lib/python2.6/site-packages/flask/app.py", line 1817, in wsgi_app
    response = self.full_dispatch_request()
  File "/Users/thomascollins/Coding/Web/Hub/python/venv/lib/python2.6/site-packages/flask/app.py", line 1478, in full_dispatch_request
    response = self.make_response(rv)
  File "/Users/thomascollins/Coding/Web/Hub/python/venv/lib/python2.6/site-packages/flask/app.py", line 1566, in make_response
    raise ValueError('View function did not return a response')
ValueError: View function did not return a response
Exception on /save_calendar [POST]
Traceback (most recent call last):
  File "/Users/thomascollins/Coding/Web/Hub/python/venv/lib/python2.6/site-packages/flask/app.py", line 1817, in wsgi_app
    response = self.full_dispatch_request()
  File "/Users/thomascollins/Coding/Web/Hub/python/venv/lib/python2.6/site-packages/flask/app.py", line 1478, in full_dispatch_request
    response = self.make_response(rv)
  File "/Users/thomascollins/Coding/Web/Hub/python/venv/lib/python2.6/site-packages/flask/app.py", line 1566, in make_response
    raise ValueError('View function did not return a response')
ValueError: View function did not return a response
Exception on /save_calendar [POST]
Traceback (most recent call last):
  File "/Users/thomascollins/Coding/Web/Hub/python/venv/lib/python2.6/site-packages/flask/app.py", line 1817, in wsgi_app
    response = self.full_dispatch_request()
  File "/Users/thomascollins/Coding/Web/Hub/python/venv/lib/python2.6/site-packages/flask/app.py", line 1477, in full_dispatch_request
    rv = self.handle_user_exception(e)
  File "/Users/thomascollins/Coding/Web/Hub/python/venv/lib/python2.6/site-packages/flask/app.py", line 1381, in handle_user_exception
    reraise(exc_type, exc_value, tb)
  File "/Users/thomascollins/Coding/Web/Hub/python/venv/lib/python2.6/site-packages/flask/app.py", line 1475, in full_dispatch_request
    rv = self.dispatch_request()
  File "/Users/thomascollins/Coding/Web/Hub/python/venv/lib/python2.6/site-packages/flask/app.py", line 1461, in dispatch_request
    return self.view_functions[rule.endpoint](**req.view_args)
  File "/Users/thomascollins/Coding/python/schedule2calendar/main/schedule2calendar.py", line 23, in calendar_save
    save_to_calendar(name, email)
  File "/Users/thomascollins/Coding/python/schedule2calendar/main/schedule.py", line 88, in save_to_calendar
    current_app.logger.Debug(filename)
AttributeError: DebugLogger instance has no attribute 'Debug'
Exception on /save_calendar [POST]
Traceback (most recent call last):
  File "/Users/thomascollins/Coding/Web/Hub/python/venv/lib/python2.6/site-packages/flask/app.py", line 1817, in wsgi_app
    response = self.full_dispatch_request()
  File "/Users/thomascollins/Coding/Web/Hub/python/venv/lib/python2.6/site-packages/flask/app.py", line 1478, in full_dispatch_request
    response = self.make_response(rv)
  File "/Users/thomascollins/Coding/Web/Hub/python/venv/lib/python2.6/site-packages/flask/app.py", line 1566, in make_response
    raise ValueError('View function did not return a response')
ValueError: View function did not return a response
Exception on /save_calendar [POST]
Traceback (most recent call last):
  File "/Users/thomascollins/Coding/Web/Hub/python/venv/lib/python2.6/site-packages/flask/app.py", line 1817, in wsgi_app
    response = self.full_dispatch_request()
  File "/Users/thomascollins/Coding/Web/Hub/python/venv/lib/python2.6/site-packages/flask/app.py", line 1478, in full_dispatch_request
    response = self.make_response(rv)
  File "/Users/thomascollins/Coding/Web/Hub/python/venv/lib/python2.6/site-packages/flask/app.py", line 1566, in make_response
    raise ValueError('View function did not return a response')
ValueError: View function did not return a response
2014-06-19 00:37:24,095 DEBUG: /Users/thomascollins/Google Drive/Canada/Malard/June 20th Final.xls [in /Users/thomascollins/Coding/python/schedule2calendar/main/schedule.py:95]
2014-06-19 00:37:25,091 INFO: Event created. ID: 9f0q5e6a3kiu1ibf5it7lc5q1g  Email: tomascollinstest@gmail.com [in /Users/thomascollins/Coding/python/schedule2calendar/main/schedule.py:62]
2014-06-19 00:37:25,462 INFO: Event created. ID: emqee7gju640j76afg84pmm6t4  Email: tomascollinstest@gmail.com [in /Users/thomascollins/Coding/python/schedule2calendar/main/schedule.py:62]
2014-06-19 00:37:25,852 INFO: Event created. ID: 0e2t0eenibdm1cem5j0tl7u190  Email: tomascollinstest@gmail.com [in /Users/thomascollins/Coding/python/schedule2calendar/main/schedule.py:62]
2014-06-19 00:37:26,240 INFO: Event created. ID: p76hqjjo8644ecga28i2k6gsl4  Email: tomascollinstest@gmail.com [in /Users/thomascollins/Coding/python/schedule2calendar/main/schedule.py:62]
2014-06-19 00:37:26,645 INFO: Event created. ID: ppc86e6v5mnbj5bo9ho56ad6ss  Email: tomascollinstest@gmail.com [in /Users/thomascollins/Coding/python/schedule2calendar/main/schedule.py:62]
2014-06-19 00:39:04,518 DEBUG: /Users/thomascollins/Google Drive/Canada/Malard/June 20th Final.xls [in /Users/thomascollins/Coding/python/schedule2calendar/main/schedule.py:95]
2014-06-19 00:39:05,360 INFO: Event created. ID: ojc4a9n83cqb3cjs7908ps8k0s  Email: tomascollinstest@gmail.com [in /Users/thomascollins/Coding/python/schedule2calendar/main/schedule.py:62]
2014-06-19 00:39:05,758 INFO: Event created. ID: ej7idb9b9dg68v44t93u6amd28  Email: tomascollinstest@gmail.com [in /Users/thomascollins/Coding/python/schedule2calendar/main/schedule.py:62]
2014-06-19 00:39:06,260 INFO: Event created. ID: knv0i29a7dtv6md5pmlnhsa9tg  Email: tomascollinstest@gmail.com [in /Users/thomascollins/Coding/python/schedule2calendar/main/schedule.py:62]
2014-06-19 00:39:06,658 INFO: Event created. ID: gq0mjatmdu6gf39pfakis5j5f0  Email: tomascollinstest@gmail.com [in /Users/thomascollins/Coding/python/schedule2calendar/main/schedule.py:62]
2014-06-19 00:39:07,123 INFO: Event created. ID: 1ltm3e1di9vio3qnvjg6n41rd4  Email: tomascollinstest@gmail.com [in /Users/thomascollins/Coding/python/schedule2calendar/main/schedule.py:62]
2014-06-19 00:39:30,476 DEBUG: /Users/thomascollins/Google Drive/Canada/Malard/June 20th Final.xls [in /Users/thomascollins/Coding/python/schedule2calendar/main/schedule.py:95]
2014-06-19 00:39:31,527 INFO: Event created. ID: ccuqutsrbb4laifruojkc5j42g  Email: tomascollinstest@gmail.com [in /Users/thomascollins/Coding/python/schedule2calendar/main/schedule.py:62]
2014-06-19 00:39:31,939 INFO: Event created. ID: ta00ap8g35aj6s8hjejcrsub1g  Email: tomascollinstest@gmail.com [in /Users/thomascollins/Coding/python/schedule2calendar/main/schedule.py:62]
2014-06-19 00:39:32,337 INFO: Event created. ID: bg1ptp3ph47d55s89rfg2gsbvc  Email: tomascollinstest@gmail.com [in /Users/thomascollins/Coding/python/schedule2calendar/main/schedule.py:62]
2014-06-19 00:39:32,718 INFO: Event created. ID: a2ih5fn6g13hqdf0mj2m68focc  Email: tomascollinstest@gmail.com [in /Users/thomascollins/Coding/python/schedule2calendar/main/schedule.py:62]
2014-06-19 00:39:33,221 INFO: Event created. ID: kd8gn26eikh6jlq0h6bhrd4n58  Email: tomascollinstest@gmail.com [in /Users/thomascollins/Coding/python/schedule2calendar/main/schedule.py:62]
2014-06-19 16:49:11,993 DEBUG: /Users/thomascollins/Google Drive/Canada/Malard/June 20th Final.xls [in /Users/thomascollins/Coding/python/schedule2calendar/main/schedule.py:95]
2014-06-19 16:49:14,440 INFO: Event created. ID: vfoe9k2ro8qouku7same8gptvg  Email: tomascollinstest@gmail.com [in /Users/thomascollins/Coding/python/schedule2calendar/main/schedule.py:62]
2014-06-19 16:49:14,844 INFO: Event created. ID: j1nmkjab6859hn29ujip6rt6t4  Email: tomascollinstest@gmail.com [in /Users/thomascollins/Coding/python/schedule2calendar/main/schedule.py:62]
2014-06-19 16:49:15,250 INFO: Event created. ID: lmas7ksq68u7bs3u9gi715n7a8  Email: tomascollinstest@gmail.com [in /Users/thomascollins/Coding/python/schedule2calendar/main/schedule.py:62]
2014-06-19 16:49:15,878 INFO: Event created. ID: q7che8aa2e2jn54k73os6e2048  Email: tomascollinstest@gmail.com [in /Users/thomascollins/Coding/python/schedule2calendar/main/schedule.py:62]
2014-06-19 16:49:16,308 INFO: Event created. ID: fa8ra5k8cq2rn7ik461b65r7a0  Email: tomascollinstest@gmail.com [in /Users/thomascollins/Coding/python/schedule2calendar/main/schedule.py:62]
2014-06-19 16:49:53,940 DEBUG: /Users/thomascollins/Google Drive/Canada/Malard/June 20th Final.xls [in /Users/thomascollins/Coding/python/schedule2calendar/main/schedule.py:95]
2014-06-19 16:49:54,773 INFO: Event created. ID: 0ki1p87o620t3b2g5ith85vgvc  Email: tomascollinstest@gmail.com [in /Users/thomascollins/Coding/python/schedule2calendar/main/schedule.py:62]
2014-06-19 16:49:55,281 INFO: Event created. ID: 12hfa83hlthf1fviv8oevsnilo  Email: tomascollinstest@gmail.com [in /Users/thomascollins/Coding/python/schedule2calendar/main/schedule.py:62]
2014-06-19 16:49:55,700 INFO: Event created. ID: d4jkk5nsgh5gque6icr9hkdqts  Email: tomascollinstest@gmail.com [in /Users/thomascollins/Coding/python/schedule2calendar/main/schedule.py:62]
2014-06-19 16:49:56,211 INFO: Event created. ID: 4tjk16guplujmhngu78cb1g5fo  Email: tomascollinstest@gmail.com [in /Users/thomascollins/Coding/python/schedule2calendar/main/schedule.py:62]
2014-06-19 16:49:56,718 INFO: Event created. ID: qfnekcc2i20bl82ra7ghoruipg  Email: tomascollinstest@gmail.com [in /Users/thomascollins/Coding/python/schedule2calendar/main/schedule.py:62]
2014-06-19 16:52:20,816 DEBUG: /Users/thomascollins/Google Drive/Canada/Malard/June 20th Final.xls [in /Users/thomascollins/Coding/python/schedule2calendar/main/schedule.py:95]
2014-06-19 16:52:21,906 INFO: Event created. ID: kd993kd9kmhbvj4obqoqejivrg  Email: tomascollinstest@gmail.com [in /Users/thomascollins/Coding/python/schedule2calendar/main/schedule.py:62]
